{
    "artists": {
        "href": "https://api.spotify.com/v1/search?query=remaster%2520track%3ADoxy%2520artist%3AMiles%2520Davis&type=artist&locale=fr-FR%2Cfr%3Bq%3D0.9%2Cen-US%3Bq%3D0.8%2Cen%3Bq%3D0.7%2Cla%3Bq%3D0.6&offset=0&limit=3",
        "items": [
            {
                "external_urls": {
                    "spotify": "https://open.spotify.com/artist/3GzWhBfnYnIg373ftnyaqc"
                },
                "followers": {
                    "href": null,
                    "total": 3950
                },
                "genres": [],
                "href": "https://api.spotify.com/v1/artists/3GzWhBfnYnIg373ftnyaqc",
                "id": "3GzWhBfnYnIg373ftnyaqc",
                "images": [
                    {
                        "height": 640,
                        "url": "https://i.scdn.co/image/ab6761610000e5eba9212386d3ae7aae199e040f",
                        "width": 640
                    },
                    {
                        "height": 320,
                        "url": "https://i.scdn.co/image/ab67616100005174a9212386d3ae7aae199e040f",
                        "width": 320
                    },
                    {
                        "height": 160,
                        "url": "https://i.scdn.co/image/ab6761610000f178a9212386d3ae7aae199e040f",
                        "width": 160
                    }
                ],
                "name": "Draviss",
                "popularity": 27,
                "type": "artist",
                "uri": "spotify:artist:3GzWhBfnYnIg373ftnyaqc"
            },
            {
                "external_urls": {
                    "spotify": "https://open.spotify.com/artist/0phTBerou4BbhXC46zQtlQ"
                },
                "followers": {
                    "href": null,
                    "total": 767
                },
                "genres": [],
                "href": "https://api.spotify.com/v1/artists/0phTBerou4BbhXC46zQtlQ",
                "id": "0phTBerou4BbhXC46zQtlQ",
                "images": [
                    {
                        "height": 640,
                        "url": "https://i.scdn.co/image/ab67616d0000b273c550be174476e2729f86b296",
                        "width": 640
                    },
                    {
                        "height": 300,
                        "url": "https://i.scdn.co/image/ab67616d00001e02c550be174476e2729f86b296",
                        "width": 300
                    },
                    {
                        "height": 64,
                        "url": "https://i.scdn.co/image/ab67616d00004851c550be174476e2729f86b296",
                        "width": 64
                    }
                ],
                "name": "Thedav",
                "popularity": 30,
                "type": "artist",
                "uri": "spotify:artist:0phTBerou4BbhXC46zQtlQ"
            },
            {
                "external_urls": {
                    "spotify": "https://open.spotify.com/artist/0VF7XcB73fBSIfX9hOTVij"
                },
                "followers": {
                    "href": null,
                    "total": 71697
                },
                "genres": [
                    "french hip hop",
                    "pop urbaine",
                    "r&b francais",
                    "rap francais"
                ],
                "href": "https://api.spotify.com/v1/artists/0VF7XcB73fBSIfX9hOTVij",
                "id": "0VF7XcB73fBSIfX9hOTVij",
                "images": [
                    {
                        "height": 640,
                        "url": "https://i.scdn.co/image/ab6761610000e5ebdcd9b6baddb2aaf6c552d7cc",
                        "width": 640
                    },
                    {
                        "height": 320,
                        "url": "https://i.scdn.co/image/ab67616100005174dcd9b6baddb2aaf6c552d7cc",
                        "width": 320
                    },
                    {
                        "height": 160,
                        "url": "https://i.scdn.co/image/ab6761610000f178dcd9b6baddb2aaf6c552d7cc",
                        "width": 160
                    }
                ],
                "name": "Dabs",
                "popularity": 40,
                "type": "artist",
                "uri": "spotify:artist:0VF7XcB73fBSIfX9hOTVij"
            }
        ],
        "limit": 3,
        "next": "https://api.spotify.com/v1/search?query=remaster%2520track%3ADoxy%2520artist%3AMiles%2520Davis&type=artist&locale=fr-FR%2Cfr%3Bq%3D0.9%2Cen-US%3Bq%3D0.8%2Cen%3Bq%3D0.7%2Cla%3Bq%3D0.6&offset=3&limit=3",
        "offset": 0,
        "previous": null,
        "total": 800
    }
}
