{
    "albums": {
        "href": "https://api.spotify.com/v1/search?query=remaster%2520track%3ADoxy%2520artist%3AMiles%2520Davis&type=album&locale=fr-FR%2Cfr%3Bq%3D0.9%2Cen-US%3Bq%3D0.8%2Cen%3Bq%3D0.7%2Cla%3Bq%3D0.6&offset=0&limit=3",
        "items": [
            {
                "album_type": "single",
                "artists": [
                    {
                        "external_urls": {
                            "spotify": "https://open.spotify.com/artist/1phDnPqXT4r72OFGND3nKh"
                        },
                        "href": "https://api.spotify.com/v1/artists/1phDnPqXT4r72OFGND3nKh",
                        "id": "1phDnPqXT4r72OFGND3nKh",
                        "name": "Sokra",
                        "type": "artist",
                        "uri": "spotify:artist:1phDnPqXT4r72OFGND3nKh"
                    }
                ],
                "available_markets": [
                    "AD",
                    "AE",
                    "AG",
                    "AL",
                    "AM",
                    "AO",
                    "AR",
                    "AT",
                    "AU",
                    "AZ",
                    "BA",
                    "BB",
                    "BD",
                    "BE",
                    "BF",
                    "BG",
                    "BH",
                    "BI",
                    "BJ",
                    "BN",
                    "BO",
                    "BR",
                    "BS",
                    "BT",
                    "BW",
                    "BZ",
                    "CA",
                    "CD",
                    "CG",
                    "CH",
                    "CI",
                    "CL",
                    "CM",
                    "CO",
                    "CR",
                    "CV",
                    "CW",
                    "CY",
                    "CZ",
                    "DE",
                    "DJ",
                    "DK",
                    "DM",
                    "DO",
                    "DZ",
                    "EC",
                    "EE",
                    "EG",
                    "ES",
                    "ET",
                    "FI",
                    "FJ",
                    "FM",
                    "FR",
                    "GA",
                    "GB",
                    "GD",
                    "GE",
                    "GH",
                    "GM",
                    "GN",
                    "GQ",
                    "GR",
                    "GT",
                    "GW",
                    "GY",
                    "HK",
                    "HN",
                    "HR",
                    "HT",
                    "HU",
                    "ID",
                    "IE",
                    "IL",
                    "IN",
                    "IQ",
                    "IS",
                    "IT",
                    "JM",
                    "JO",
                    "JP",
                    "KE",
                    "KG",
                    "KH",
                    "KI",
                    "KM",
                    "KN",
                    "KR",
                    "KW",
                    "KZ",
                    "LA",
                    "LB",
                    "LC",
                    "LI",
                    "LK",
                    "LR",
                    "LS",
                    "LT",
                    "LU",
                    "LV",
                    "LY",
                    "MA",
                    "MC",
                    "MD",
                    "ME",
                    "MG",
                    "MH",
                    "MK",
                    "ML",
                    "MN",
                    "MO",
                    "MR",
                    "MT",
                    "MU",
                    "MV",
                    "MW",
                    "MX",
                    "MY",
                    "MZ",
                    "NA",
                    "NE",
                    "NG",
                    "NI",
                    "NL",
                    "NO",
                    "NP",
                    "NR",
                    "NZ",
                    "OM",
                    "PA",
                    "PE",
                    "PG",
                    "PH",
                    "PK",
                    "PL",
                    "PS",
                    "PT",
                    "PW",
                    "PY",
                    "QA",
                    "RO",
                    "RS",
                    "RW",
                    "SA",
                    "SB",
                    "SC",
                    "SE",
                    "SG",
                    "SI",
                    "SK",
                    "SL",
                    "SM",
                    "SN",
                    "SR",
                    "ST",
                    "SV",
                    "SZ",
                    "TD",
                    "TG",
                    "TH",
                    "TJ",
                    "TL",
                    "TN",
                    "TO",
                    "TR",
                    "TT",
                    "TV",
                    "TW",
                    "TZ",
                    "UA",
                    "UG",
                    "US",
                    "UY",
                    "UZ",
                    "VC",
                    "VE",
                    "VN",
                    "VU",
                    "WS",
                    "XK",
                    "ZA",
                    "ZM",
                    "ZW"
                ],
                "external_urls": {
                    "spotify": "https://open.spotify.com/album/0woVeAnAojNHXk9tHij3vK"
                },
                "href": "https://api.spotify.com/v1/albums/0woVeAnAojNHXk9tHij3vK",
                "id": "0woVeAnAojNHXk9tHij3vK",
                "images": [
                    {
                        "height": 640,
                        "url": "https://i.scdn.co/image/ab67616d0000b2733bdf4ec808d65ade80c8d12a",
                        "width": 640
                    },
                    {
                        "height": 300,
                        "url": "https://i.scdn.co/image/ab67616d00001e023bdf4ec808d65ade80c8d12a",
                        "width": 300
                    },
                    {
                        "height": 64,
                        "url": "https://i.scdn.co/image/ab67616d000048513bdf4ec808d65ade80c8d12a",
                        "width": 64
                    }
                ],
                "name": "Davies",
                "release_date": "2023-03-23",
                "release_date_precision": "day",
                "total_tracks": 1,
                "type": "album",
                "uri": "spotify:album:0woVeAnAojNHXk9tHij3vK"
            },
            {
                "album_type": "album",
                "artists": [
                    {
                        "external_urls": {
                            "spotify": "https://open.spotify.com/artist/7uzKFCBLb6SLQ5c4ML6fQw"
                        },
                        "href": "https://api.spotify.com/v1/artists/7uzKFCBLb6SLQ5c4ML6fQw",
                        "id": "7uzKFCBLb6SLQ5c4ML6fQw",
                        "name": "DOXX",
                        "type": "artist",
                        "uri": "spotify:artist:7uzKFCBLb6SLQ5c4ML6fQw"
                    }
                ],
                "available_markets": [
                    "AD",
                    "AE",
                    "AG",
                    "AL",
                    "AM",
                    "AO",
                    "AR",
                    "AT",
                    "AU",
                    "AZ",
                    "BA",
                    "BB",
                    "BD",
                    "BE",
                    "BF",
                    "BG",
                    "BH",
                    "BI",
                    "BJ",
                    "BN",
                    "BO",
                    "BR",
                    "BS",
                    "BT",
                    "BW",
                    "BY",
                    "BZ",
                    "CA",
                    "CD",
                    "CG",
                    "CH",
                    "CI",
                    "CL",
                    "CM",
                    "CO",
                    "CR",
                    "CV",
                    "CW",
                    "CY",
                    "CZ",
                    "DE",
                    "DJ",
                    "DK",
                    "DM",
                    "DO",
                    "DZ",
                    "EC",
                    "EE",
                    "EG",
                    "ES",
                    "ET",
                    "FI",
                    "FJ",
                    "FM",
                    "FR",
                    "GA",
                    "GB",
                    "GD",
                    "GE",
                    "GH",
                    "GM",
                    "GN",
                    "GQ",
                    "GR",
                    "GT",
                    "GW",
                    "GY",
                    "HK",
                    "HN",
                    "HR",
                    "HT",
                    "HU",
                    "ID",
                    "IE",
                    "IL",
                    "IN",
                    "IQ",
                    "IS",
                    "IT",
                    "JM",
                    "JO",
                    "JP",
                    "KE",
                    "KG",
                    "KH",
                    "KI",
                    "KM",
                    "KN",
                    "KR",
                    "KW",
                    "KZ",
                    "LA",
                    "LB",
                    "LC",
                    "LI",
                    "LK",
                    "LR",
                    "LS",
                    "LT",
                    "LU",
                    "LV",
                    "LY",
                    "MA",
                    "MC",
                    "MD",
                    "ME",
                    "MG",
                    "MH",
                    "MK",
                    "ML",
                    "MN",
                    "MO",
                    "MR",
                    "MT",
                    "MU",
                    "MV",
                    "MW",
                    "MX",
                    "MY",
                    "MZ",
                    "NA",
                    "NE",
                    "NG",
                    "NI",
                    "NL",
                    "NO",
                    "NP",
                    "NR",
                    "NZ",
                    "OM",
                    "PA",
                    "PE",
                    "PG",
                    "PH",
                    "PK",
                    "PL",
                    "PS",
                    "PT",
                    "PW",
                    "PY",
                    "QA",
                    "RO",
                    "RS",
                    "RW",
                    "SA",
                    "SB",
                    "SC",
                    "SE",
                    "SG",
                    "SI",
                    "SK",
                    "SL",
                    "SM",
                    "SN",
                    "SR",
                    "ST",
                    "SV",
                    "SZ",
                    "TD",
                    "TG",
                    "TH",
                    "TJ",
                    "TL",
                    "TN",
                    "TO",
                    "TR",
                    "TT",
                    "TV",
                    "TW",
                    "TZ",
                    "UA",
                    "UG",
                    "US",
                    "UY",
                    "UZ",
                    "VC",
                    "VE",
                    "VN",
                    "VU",
                    "WS",
                    "XK",
                    "ZA",
                    "ZM",
                    "ZW"
                ],
                "external_urls": {
                    "spotify": "https://open.spotify.com/album/2VpKZnbAnhQSeomkSX3yCo"
                },
                "href": "https://api.spotify.com/v1/albums/2VpKZnbAnhQSeomkSX3yCo",
                "id": "2VpKZnbAnhQSeomkSX3yCo",
                "images": [
                    {
                        "height": 640,
                        "url": "https://i.scdn.co/image/ab67616d0000b273905a9550d5ba0c56f28d7ffb",
                        "width": 640
                    },
                    {
                        "height": 300,
                        "url": "https://i.scdn.co/image/ab67616d00001e02905a9550d5ba0c56f28d7ffb",
                        "width": 300
                    },
                    {
                        "height": 64,
                        "url": "https://i.scdn.co/image/ab67616d00004851905a9550d5ba0c56f28d7ffb",
                        "width": 64
                    }
                ],
                "name": "2017",
                "release_date": "2020-04-24",
                "release_date_precision": "day",
                "total_tracks": 10,
                "type": "album",
                "uri": "spotify:album:2VpKZnbAnhQSeomkSX3yCo"
            },
            {
                "album_type": "album",
                "artists": [
                    {
                        "external_urls": {
                            "spotify": "https://open.spotify.com/artist/7uzKFCBLb6SLQ5c4ML6fQw"
                        },
                        "href": "https://api.spotify.com/v1/artists/7uzKFCBLb6SLQ5c4ML6fQw",
                        "id": "7uzKFCBLb6SLQ5c4ML6fQw",
                        "name": "DOXX",
                        "type": "artist",
                        "uri": "spotify:artist:7uzKFCBLb6SLQ5c4ML6fQw"
                    }
                ],
                "available_markets": [
                    "AD",
                    "AE",
                    "AG",
                    "AL",
                    "AM",
                    "AO",
                    "AR",
                    "AT",
                    "AU",
                    "AZ",
                    "BA",
                    "BB",
                    "BD",
                    "BE",
                    "BF",
                    "BG",
                    "BH",
                    "BI",
                    "BJ",
                    "BN",
                    "BO",
                    "BR",
                    "BS",
                    "BT",
                    "BW",
                    "BY",
                    "BZ",
                    "CA",
                    "CD",
                    "CG",
                    "CH",
                    "CI",
                    "CL",
                    "CM",
                    "CO",
                    "CR",
                    "CV",
                    "CW",
                    "CY",
                    "CZ",
                    "DE",
                    "DJ",
                    "DK",
                    "DM",
                    "DO",
                    "DZ",
                    "EC",
                    "EE",
                    "EG",
                    "ES",
                    "ET",
                    "FI",
                    "FJ",
                    "FM",
                    "FR",
                    "GA",
                    "GB",
                    "GD",
                    "GE",
                    "GH",
                    "GM",
                    "GN",
                    "GQ",
                    "GR",
                    "GT",
                    "GW",
                    "GY",
                    "HK",
                    "HN",
                    "HR",
                    "HT",
                    "HU",
                    "ID",
                    "IE",
                    "IL",
                    "IN",
                    "IQ",
                    "IS",
                    "IT",
                    "JM",
                    "JO",
                    "JP",
                    "KE",
                    "KG",
                    "KH",
                    "KI",
                    "KM",
                    "KN",
                    "KR",
                    "KW",
                    "KZ",
                    "LA",
                    "LB",
                    "LC",
                    "LI",
                    "LK",
                    "LR",
                    "LS",
                    "LT",
                    "LU",
                    "LV",
                    "LY",
                    "MA",
                    "MC",
                    "MD",
                    "ME",
                    "MG",
                    "MH",
                    "MK",
                    "ML",
                    "MN",
                    "MO",
                    "MR",
                    "MT",
                    "MU",
                    "MV",
                    "MW",
                    "MX",
                    "MY",
                    "MZ",
                    "NA",
                    "NE",
                    "NG",
                    "NI",
                    "NL",
                    "NO",
                    "NP",
                    "NR",
                    "NZ",
                    "OM",
                    "PA",
                    "PE",
                    "PG",
                    "PH",
                    "PK",
                    "PL",
                    "PS",
                    "PT",
                    "PW",
                    "PY",
                    "QA",
                    "RO",
                    "RS",
                    "RW",
                    "SA",
                    "SB",
                    "SC",
                    "SE",
                    "SG",
                    "SI",
                    "SK",
                    "SL",
                    "SM",
                    "SN",
                    "SR",
                    "ST",
                    "SV",
                    "SZ",
                    "TD",
                    "TG",
                    "TH",
                    "TJ",
                    "TL",
                    "TN",
                    "TO",
                    "TR",
                    "TT",
                    "TV",
                    "TW",
                    "TZ",
                    "UA",
                    "UG",
                    "US",
                    "UY",
                    "UZ",
                    "VC",
                    "VE",
                    "VN",
                    "VU",
                    "WS",
                    "XK",
                    "ZA",
                    "ZM",
                    "ZW"
                ],
                "external_urls": {
                    "spotify": "https://open.spotify.com/album/6l7RUkRuLPcYooAaip4ssX"
                },
                "href": "https://api.spotify.com/v1/albums/6l7RUkRuLPcYooAaip4ssX",
                "id": "6l7RUkRuLPcYooAaip4ssX",
                "images": [
                    {
                        "height": 640,
                        "url": "https://i.scdn.co/image/ab67616d0000b2739af73fd07ed7554ffff5c403",
                        "width": 640
                    },
                    {
                        "height": 300,
                        "url": "https://i.scdn.co/image/ab67616d00001e029af73fd07ed7554ffff5c403",
                        "width": 300
                    },
                    {
                        "height": 64,
                        "url": "https://i.scdn.co/image/ab67616d000048519af73fd07ed7554ffff5c403",
                        "width": 64
                    }
                ],
                "name": "Sun 7",
                "release_date": "2018-08-10",
                "release_date_precision": "day",
                "total_tracks": 7,
                "type": "album",
                "uri": "spotify:album:6l7RUkRuLPcYooAaip4ssX"
            }
        ],
        "limit": 3,
        "next": "https://api.spotify.com/v1/search?query=remaster%2520track%3ADoxy%2520artist%3AMiles%2520Davis&type=album&locale=fr-FR%2Cfr%3Bq%3D0.9%2Cen-US%3Bq%3D0.8%2Cen%3Bq%3D0.7%2Cla%3Bq%3D0.6&offset=3&limit=3",
        "offset": 0,
        "previous": null,
        "total": 800
    },
    "artists": {
        "href": "https://api.spotify.com/v1/search?query=remaster%2520track%3ADoxy%2520artist%3AMiles%2520Davis&type=artist&locale=fr-FR%2Cfr%3Bq%3D0.9%2Cen-US%3Bq%3D0.8%2Cen%3Bq%3D0.7%2Cla%3Bq%3D0.6&offset=0&limit=3",
        "items": [
            {
                "external_urls": {
                    "spotify": "https://open.spotify.com/artist/3GzWhBfnYnIg373ftnyaqc"
                },
                "followers": {
                    "href": null,
                    "total": 3950
                },
                "genres": [],
                "href": "https://api.spotify.com/v1/artists/3GzWhBfnYnIg373ftnyaqc",
                "id": "3GzWhBfnYnIg373ftnyaqc",
                "images": [
                    {
                        "height": 640,
                        "url": "https://i.scdn.co/image/ab6761610000e5eba9212386d3ae7aae199e040f",
                        "width": 640
                    },
                    {
                        "height": 320,
                        "url": "https://i.scdn.co/image/ab67616100005174a9212386d3ae7aae199e040f",
                        "width": 320
                    },
                    {
                        "height": 160,
                        "url": "https://i.scdn.co/image/ab6761610000f178a9212386d3ae7aae199e040f",
                        "width": 160
                    }
                ],
                "name": "Draviss",
                "popularity": 27,
                "type": "artist",
                "uri": "spotify:artist:3GzWhBfnYnIg373ftnyaqc"
            },
            {
                "external_urls": {
                    "spotify": "https://open.spotify.com/artist/0phTBerou4BbhXC46zQtlQ"
                },
                "followers": {
                    "href": null,
                    "total": 767
                },
                "genres": [],
                "href": "https://api.spotify.com/v1/artists/0phTBerou4BbhXC46zQtlQ",
                "id": "0phTBerou4BbhXC46zQtlQ",
                "images": [
                    {
                        "height": 640,
                        "url": "https://i.scdn.co/image/ab67616d0000b273c550be174476e2729f86b296",
                        "width": 640
                    },
                    {
                        "height": 300,
                        "url": "https://i.scdn.co/image/ab67616d00001e02c550be174476e2729f86b296",
                        "width": 300
                    },
                    {
                        "height": 64,
                        "url": "https://i.scdn.co/image/ab67616d00004851c550be174476e2729f86b296",
                        "width": 64
                    }
                ],
                "name": "Thedav",
                "popularity": 30,
                "type": "artist",
                "uri": "spotify:artist:0phTBerou4BbhXC46zQtlQ"
            },
            {
                "external_urls": {
                    "spotify": "https://open.spotify.com/artist/0VF7XcB73fBSIfX9hOTVij"
                },
                "followers": {
                    "href": null,
                    "total": 71697
                },
                "genres": [
                    "french hip hop",
                    "pop urbaine",
                    "r&b francais",
                    "rap francais"
                ],
                "href": "https://api.spotify.com/v1/artists/0VF7XcB73fBSIfX9hOTVij",
                "id": "0VF7XcB73fBSIfX9hOTVij",
                "images": [
                    {
                        "height": 640,
                        "url": "https://i.scdn.co/image/ab6761610000e5ebdcd9b6baddb2aaf6c552d7cc",
                        "width": 640
                    },
                    {
                        "height": 320,
                        "url": "https://i.scdn.co/image/ab67616100005174dcd9b6baddb2aaf6c552d7cc",
                        "width": 320
                    },
                    {
                        "height": 160,
                        "url": "https://i.scdn.co/image/ab6761610000f178dcd9b6baddb2aaf6c552d7cc",
                        "width": 160
                    }
                ],
                "name": "Dabs",
                "popularity": 40,
                "type": "artist",
                "uri": "spotify:artist:0VF7XcB73fBSIfX9hOTVij"
            }
        ],
        "limit": 3,
        "next": "https://api.spotify.com/v1/search?query=remaster%2520track%3ADoxy%2520artist%3AMiles%2520Davis&type=artist&locale=fr-FR%2Cfr%3Bq%3D0.9%2Cen-US%3Bq%3D0.8%2Cen%3Bq%3D0.7%2Cla%3Bq%3D0.6&offset=3&limit=3",
        "offset": 0,
        "previous": null,
        "total": 800
    }
}
