{
    "href": "https://api.spotify.com/v1/me/shows?offset=0&limit=20",
    "limit": 20,
    "next": "https://api.spotify.com/v1/me/shows?offset=1&limit=1",
    "offset": 0,
    "previous": "https://api.spotify.com/v1/me/shows?offset=1&limit=1",
    "total": 4,
    "items": [
        {
            "artists": [
                {
                    "external_urls": {
                        "spotify": "string"
                    },
                    "href": "string",
                    "id": "string",
                    "name": "string",
                    "type": "artist",
                    "uri": "string"
                }
            ],
            "available_markets": [
                "string"
            ],
            "disc_number": 0,
            "duration_ms": 0,
            "explicit": false,
            "external_urls": {
                "spotify": "string"
            },
            "href": "string",
            "id": "string",
            "is_playable": false,
            "linked_from": {
                "external_urls": {
                    "spotify": "string"
                },
                "href": "string",
                "id": "string",
                "type": "string",
                "uri": "string"
            },
            "restrictions": {
                "reason": "string"
            },
            "name": "string",
            "preview_url": "string",
            "track_number": 0,
            "type": "string",
            "uri": "string",
            "is_local": false
        }
    ]
}
