{
    "categories": {
        "href": "https://api.spotify.com/v1/me/shows?offset=0&limit=20",
        "limit": 20,
        "next": "https://api.spotify.com/v1/me/shows?offset=1&limit=1",
        "offset": 0,
        "previous": "https://api.spotify.com/v1/me/shows?offset=1&limit=1",
        "total": 4,
        "items": [
            {
                "href": "https://api.spotify.com/v1/browse/categories/0JQ5DAqbMKFDXXwE9BDJAr",
                "icons": [
                    {
                        "height": 274,
                        "url": "https://t.scdn.co/media/derived/rock_9ce79e0a4ef901bbd10494f5b855d3cc_0_0_274_274.jpg",
                        "width": 274
                    }
                ],
                "id": "0JQ5DAqbMKFDXXwE9BDJAr",
                "name": "Rock"
            }
        ]
    }
}
